\relax 
\@writefile{toc}{\contentsline {chapter}{\numberline {1}Introducci\IeC {\'o}n a lenguajes de programaci\IeC {\'o}n}{1}}
\@writefile{lof}{\addvspace {10\p@ }}
\@writefile{lot}{\addvspace {10\p@ }}
\@writefile{toc}{\contentsline {section}{\numberline {1.1}Tipos de lenguajes}{1}}
\@writefile{toc}{\contentsline {section}{\numberline {1.2}Tipos de int\IeC {\'e}rpretes}{2}}
\@writefile{toc}{\contentsline {subsection}{\numberline {1.2.1}Ensambladores}{2}}
\@writefile{toc}{\contentsline {subsubsection}{Ensablador Motorola}{2}}
\@writefile{toc}{\contentsline {paragraph}{1970-1990}{2}}
\@writefile{toc}{\contentsline {paragraph}{1990-2018}{2}}
\@writefile{toc}{\contentsline {subsubsection}{Ensablador Intel}{2}}
\@writefile{toc}{\contentsline {subsection}{\numberline {1.2.2}Compildores}{2}}
\@writefile{toc}{\contentsline {chapter}{\numberline {2}Introducci\IeC {\'o}n a lenguajes de marcas}{4}}
\@writefile{lof}{\addvspace {10\p@ }}
\@writefile{lot}{\addvspace {10\p@ }}
