\relax 
\@writefile{toc}{\contentsline {section}{\numberline {1}Primer punto}{1}}
\@writefile{toc}{\contentsline {section}{\numberline {2}Tercer punto}{1}}
\@writefile{toc}{\contentsline {subsection}{\numberline {2.1}Tercer punto - 1}{1}}
\@writefile{toc}{\contentsline {subsection}{\numberline {2.2}Tercer punto - 2}{1}}
